4 Biased transmission: frequency-dependent indirect bias | Individual-based models of cultural evolution
…
N <- 100
p_0 <- 0.5
D <- 1

population <- tibble(trait = sample(c("A", "B"), N, replace = TRUE, prob = c(p_0, 1 - p_0))) # create first generation

Now we create another tibble, called demonstrators that picks, for each new individual in the next generation, three demonstrators at random from the current population of individuals. It therefore needs three columns/variables, one for each of the demonstrators, and \(N\) rows, one for each individual. We fill each column with randomly chosen traits from the population tibble. We can have a look at demonstrators by entering its name in the R console.

# create dataframe with a set of 3 randomly-picked demonstrators for each agent
demonstrators <- tibble(dem1 = sample(population$trait, N, replace = TRUE), dem2 = sample(population$trait, N, replace = TRUE), dem3 = sample(population$trait, N, replace = TRUE))

demonstrators

## # A tibble: 100 x 3
##    dem1  dem2  dem3 
##    <chr> <chr> <chr>
##  1 B     A     B    
##  2 B     A     B    
##  3 B     A     B    
##  4 A     A     B    
##  5 A     B     B    
##  6 A     B     A    
##  7 A     A     B    
##  8 A     B     B    
##  9 B     B     B    
## 10 B     B     A    
## # … with 90 more rows
…
To check it works, we can add the new population tibble as a column to demonstrators and have a look at it. This will let us see the three demonstrators and the resulting new trait side by side.

# for testing only, add the new traits to the demonstrator dataframe and show it
demonstrators <- add_column(demonstrators, new_trait = population$trait)

demonstrators

## # A tibble: 100 x 4
##    dem1  dem2  dem3  new_trait
##    <chr> <chr> <chr> <chr>    
##  1 B     A     B     B        
##  2 B     A     B     B        
##  3 B     A     B     B        
##  4 A     A     B     A        
##  5 A     B     B     B        
##  6 A     B     A     A        
##  7 A     A     B     A        
##  8 A     B     B     B        
##  9 B     B     B     B        
## 10 B     B     A     B        
## # … with 90 more rows
…
# for testing only, add the new traits to the demonstrator dataframe and show it
demonstrators <- add_column(demonstrators, new_trait = population$trait)

demonstrators

## # A tibble: 100 x 4
##    dem1  dem2  dem3  new_trait
##    <chr> <chr> <chr> <chr>    
##  1 B     A     A     A        
##  2 B     B     A     A        
##  3 A     A     B     A        
##  4 B     A     A     B        
##  5 A     A     A     A        
##  6 A     B     B     B        
##  7 A     A     B     A        
##  8 B     B     A     B        
##  9 B     A     B     B        
## 10 A     B     A     A        
## # … with 90 more rows
…
