4 Biased transmission (indirect bias: model) | Individual-based models of cultural evolution
…
library(tidyverse)
set.seed(111)

N <- 100
p_0 <- 0.5

population <- tibble(trait = sample(c("A", "B"), N, replace = TRUE, prob = c(p_0, 1 - p_0)),
                     grade = rexp(N)) 

The only difference in the initialisation of the population is that we have now another variable, \(grade\), where the function rexp() draws \(N\) random numbers from an exponential distribution. We can inspect the tibble by typing its name in the R console

population

## # A tibble: 100 x 2
##    trait grade
##    <chr> <dbl>
##  1 A     0.152
##  2 A     1.48 
##  3 B     0.122
##  4 A     4.71 
##  5 B     0.280
##  6 B     0.761
##  7 B     0.139
##  8 A     0.138
##  9 B     0.672
## 10 B     0.456
## # … with 90 more rows
…
