5 Biased transmission: demonstrator-based indirect bias | Individual-based models of cultural evolution
…
library(tidyverse)
set.seed(111)

N <- 100
p_0 <- 0.5
p_s <- 0.05

population <- tibble(trait = sample(c("A", "B"), N, replace = TRUE, prob = c(p_0, 1 - p_0)),
                     status = sample(c("high", "low"), N, replace = TRUE, prob = c(p_s, 1 - p_s))) 

We can inspect the tibble by typing its name in the R console

population

## # A tibble: 100 x 2
##    trait status
##    <chr> <chr> 
##  1 A     low   
##  2 A     low   
##  3 B     low   
##  4 A     low   
##  5 B     low   
##  6 B     low   
##  7 B     low   
##  8 A     low   
##  9 B     low   
## 10 B     high  
## # … with 90 more rows
…
Here, status_A gives the starting frequency of A amongst the high status individuals. \(p\), as before, gives the frequency of \(A\) in the entire population, but we only record this value at the very end of the simluation, to see if one trait has gone to fixation.

Let’s run the new function, biased_transmission_demonstrator_2, for 50 runs (setting \(r_\text{max}=50\)) so that we have more independent data points, and inspect the output. We use set.seed to make sure your output is the same as ours.

set.seed(111)
data_model <- biased_transmission_demonstrator_2(N = 100, p_s = 0.05, p_low=0.0001, p_0 = 0.5, t_max = 50, r_max = 50)
data_model

## # A tibble: 50 x 2
##    status_A     p
##       <dbl> <dbl>
##  1    0.2       0
##  2    0.571     1
##  3    0.75      0
##  4    0.286     0
##  5    1         1
##  6    0.333     1
##  7    0.8       0
##  8    0.333     0
##  9    0.571     0
## 10    0.333     0
## # … with 40 more rows
…
