5 Biased transmission (indirect bias: demonstrator) | Individual-based models of cultural evolution
…
library(tidyverse)
set.seed(111)

N <- 100
p_0 <- 0.5
p_s <- 0.05

population <- tibble(trait = sample(c("A", "B"), N, replace = TRUE, prob = c(p_0, 1 - p_0)),
                     status = sample(c("high", "low"), N, replace = TRUE, prob = c(p_s, 1 - p_s))) 

We can inspect the tibble by typing its name in the R console

population

## # A tibble: 100 x 2
##    trait status
##    <chr> <chr> 
##  1 A     low   
##  2 A     low   
##  3 B     low   
##  4 A     low   
##  5 B     low   
##  6 B     low   
##  7 B     low   
##  8 A     low   
##  9 B     low   
## 10 B     high  
## # … with 90 more rows
…
