6 Multiple traits models | Individual-based models of cultural evolution
…
## ── Conflicts ───────────────────────────────────────────────────────────────────────────────────────────────────────────────── tidyverse_conflicts() ──
## ✖ dplyr::filter() masks stats::filter()
## ✖ dplyr::lag()    masks stats::lag()

set.seed(111)
N <- 100
population <- tibble(trait = sample(1:N, N, replace = TRUE))

As usual, you can inspect the population tibble by writing its name.

population

## # A tibble: 100 x 1
##    trait
##    <int>
##  1    60
##  2    73
##  3    38
##  4    52
##  5    38
##  6    42
##  7     2
##  8    54
##  9    44
## 10    10
## # … with 90 more rows
…
