1 Unbiased transmission | Individual-based models of cultural evolution
…
library(tidyverse)
set.seed(100)
population <- tibble(trait = sample(c("A", "B"), N, replace = TRUE))

We can see the cultural traits of our population by simply entering its name in the R console:

population

## # A tibble: 100 x 1
##    trait
##    <chr>
##  1 A    
##  2 A    
##  3 B    
##  4 A    
##  5 A    
##  6 A    
##  7 B    
##  8 A    
##  9 B    
## 10 A    
## # … with 90 more rows
…
This should match the fourth row in the table above.

We also need a tibble to track the trait frequency \(p\) in each generation. This will have two columns with \(t_{\text{max}}\) rows, one for each generation. One is simply a counter of the generations, from 1 to \(t_{\text{max}}\). This is useful to plot the output. The other contains the \(p\) values for each generation. We’ll call this tibble output, because it is the output of the model. At this stage we don’t know what \(p\) will be in each generation, so for now let’s fill the output tibble with lots of NAs, which is R’s symbol for Not Available, or missing value. We can use the rep() (repeat) command to repeat NA \(t_{\text{max}}\) times.

We’re using NA rather than, say, zero, because zero could be misinterpreted as \(p = 0\), which would mean that all individuals have trait \(B\). This would be misleading, because at the moment we haven’t yet calculated \(p\), so it’s nonexistent, rather than zero.

output <- tibble(generation = 1:t_max, p = rep(NA, t_max))

We can, however, fill in the first value of \(p\) for our already-created first generation of individuals, held in population. The command below sums the number of \(A\)s in population and divides by \(N\) to get a proportion out of 1 rather than an absolute number. It then puts this proportion in the first slot of \(p\) in output, the one for the first generation, \(t=1\). We can again write the name of the tibble, output, to see that it worked.

output$p[1] <- sum(population$trait == "A") / N
output

## # A tibble: 200 x 2
##    generation     p
##         <int> <dbl>
##  1          1   0.5
##  2          2  NA  
##  3          3  NA  
##  4          4  NA  
##  5          5  NA  
##  6          6  NA  
##  7          7  NA  
##  8          8  NA  
##  9          9  NA  
## 10         10  NA  
## # … with 190 more rows
…
You should be able to see five independent runs of our simulation shown as regular thin lines, along with a thicker line showing the mean of these lines. Some runs have probably gone to 0 or 1, and the mean should be somewhere in between. The data is stored in data_model, which we can inspect by writing its name.

data_model

## # A tibble: 1,000 x 3
##    generation     p run  
##         <int> <dbl> <fct>
##  1          1  0.55 1    
##  2          2  0.59 1    
##  3          3  0.66 1    
##  4          4  0.6  1    
##  5          5  0.62 1    
##  6          6  0.59 1    
##  7          7  0.63 1    
##  8          8  0.64 1    
##  9          9  0.68 1    
## 10         10  0.77 1    
## # … with 990 more rows
…
